...................
----------------------------------------------------------------------
Ran 19 tests in 4.479s

OK
Name             Stmts   Miss Branch BrPart  Cover   Missing
------------------------------------------------------------
Collatz.py          25      0      8      0   100%
TestCollatz.py      83      0      0      0   100%
------------------------------------------------------------
TOTAL              108      0      8      0   100%
