................
----------------------------------------------------------------------
Ran 16 tests in 0.047s

OK
Name             Stmts   Miss Branch BrPart  Cover   Missing
------------------------------------------------------------
Collatz.py          36      0     14      0   100%
TestCollatz.py      74      0      0      0   100%
------------------------------------------------------------
TOTAL              110      0     14      0   100%
